<?xml version="1.0" encoding="UTF-8" standalone="no"?>
<svg
   xmlns:dc="http://purl.org/dc/elements/1.1/"
   xmlns:cc="http://creativecommons.org/ns#"
   xmlns:rdf="http://www.w3.org/1999/02/22-rdf-syntax-ns#"
   xmlns:svg="http://www.w3.org/2000/svg"
   xmlns="http://www.w3.org/2000/svg"
   xmlns:sodipodi="http://sodipodi.sourceforge.net/DTD/sodipodi-0.dtd"
   xmlns:inkscape="http://www.inkscape.org/namespaces/inkscape"
   version="1.1"
   viewBox="0 0 459.99899 130.791"
   xml:space="preserve"
   id="svg14"
   sodipodi:docname="linkedin-logo.svg"
   
   inkscape:version="0.92.2 (5c3e80d, 2017-08-06)"><metadata
     id="metadata20"><rdf:RDF><cc:Work
         rdf:about=""><dc:format>image/svg+xml</dc:format><dc:type
           rdf:resource="http://purl.org/dc/dcmitype/StillImage" /></cc:Work></rdf:RDF></metadata><defs
     id="defs18" /><sodipodi:namedview
     pagecolor="#ffffff"
     bordercolor="#666666"
     borderopacity="1"
     objecttolerance="10"
     gridtolerance="10"
     guidetolerance="10"
     inkscape:pageopacity="0"
     inkscape:pageshadow="2"
     inkscape:window-width="1920"
     inkscape:window-height="1018"
     id="namedview16"
     showgrid="false"
     inkscape:zoom="1.5934753"
     inkscape:cx="230"
     inkscape:cy="65.895"
     inkscape:window-x="-8"
     inkscape:window-y="-8"
     inkscape:window-maximized="1"
     inkscape:current-layer="svg14" /><g
     id="形状_1_3_"
     style="enable-background:new"
     transform="translate(-26,-191.104)"><g
       id="形状_1"><g
         id="g4"><path
           d="M 43.391,217.477 H 26 v 77.115 H 74.053 V 279.947 H 43.391 Z m 45.646,-3.087 c -5.606,0 -9.268,3.775 -9.268,8.695 0,4.804 3.547,8.694 9.039,8.694 5.834,0 9.381,-3.891 9.381,-8.694 -0.113,-4.92 -3.547,-8.695 -9.152,-8.695 z m -8.81,80.202 H 97.619 V 238.645 H 80.227 Z m 60.863,-57.206 c -9.381,0 -14.987,5.377 -17.275,9.039 h -0.344 l -0.802,-7.78 h -15.102 c 0.229,5.035 0.457,10.869 0.457,17.848 v 38.1 h 17.392 v -32.264 c 0,-1.603 0.114,-3.204 0.571,-4.349 1.259,-3.202 4.12,-6.521 8.926,-6.521 6.292,0 8.809,4.92 8.809,12.127 v 31.006 h 17.392 v -33.065 c -0.001,-16.475 -8.582,-24.141 -20.024,-24.141 z m 84.318,1.259 h -20.937 l -11.327,16.818 c -1.373,2.06 -2.745,4.348 -4.004,6.75 h -0.229 V 213.359 H 171.52 v 81.232 h 17.392 v -17.506 l 4.347,-5.491 13.616,22.997 h 21.395 l -22.882,-33.294 z m 28.029,-1.259 c -19.448,0 -28.259,15.675 -28.259,29.861 0,17.506 10.87,28.488 29.863,28.488 7.551,0 14.529,-1.144 20.25,-3.547 l -2.286,-11.784 c -4.693,1.602 -9.498,2.403 -15.447,2.403 -8.124,0 -15.332,-3.434 -15.789,-10.641 h 36.039 c 0.229,-1.259 0.572,-3.891 0.572,-6.864 -10e-4,-13.843 -6.864,-27.916 -24.943,-27.916 z m -11.784,22.882 c 0.457,-4.575 3.433,-11.327 10.755,-11.327 8.009,0 9.838,7.094 9.838,11.327 z m 97.819,17.62 V 213.36 H 322.08 v 30.205 h -0.229 c -2.518,-3.776 -7.78,-6.293 -14.759,-6.293 -13.386,0 -25.17,10.983 -25.056,29.861 0,17.392 10.641,28.719 23.912,28.719 7.207,0 14.072,-3.205 17.506,-9.384 h 0.342 l 0.686,8.124 h 15.447 c -0.229,-3.776 -0.457,-10.412 -0.457,-16.704 z m -17.392,-8.237 c 0,1.372 -0.113,2.745 -0.343,4.004 -1.03,4.919 -5.148,8.351 -10.183,8.351 -7.207,0 -11.9,-5.95 -11.9,-15.444 0,-8.811 4.005,-15.903 12.016,-15.903 5.378,0 9.152,3.891 10.182,8.466 0.229,1.029 0.229,2.287 0.229,3.204 v 7.322 z"
           style="clip-rule:evenodd;fill-rule:evenodd"
           id="path2"
           inkscape:connector-curvature="0" /></g></g></g><g
     id="形状_1_2_"
     style="enable-background:new"
     transform="translate(-26,-191.104)"><g
       id="形状_1_1_"><g
         id="g10"><path
           d="M 472.968,191.104 H 369.771 c -7.199,0 -13.032,5.854 -13.032,13.075 V 308.82 c 0,7.222 5.833,13.075 13.032,13.075 h 103.196 c 7.199,0 13.032,-5.854 13.032,-13.075 V 204.18 c 10e-4,-7.221 -5.832,-13.076 -13.031,-13.076 z m -74.752,103.488 h -17.391 v -55.947 h 17.391 z m -8.81,-62.813 c -5.491,0 -9.038,-3.891 -9.038,-8.694 0,-4.92 3.66,-8.695 9.267,-8.695 5.605,0 9.039,3.775 9.152,8.695 0,4.804 -3.547,8.694 -9.381,8.694 z m 72.305,62.813 h -17.39 v -31.006 c 0,-7.207 -2.519,-12.127 -8.812,-12.127 -4.805,0 -7.664,3.318 -8.923,6.521 -0.457,1.145 -0.573,2.746 -0.573,4.349 v 32.264 h -17.39 v -38.1 c 0,-6.979 -0.229,-12.813 -0.457,-17.848 h 15.102 l 0.802,7.78 h 0.343 c 2.288,-3.662 7.895,-9.039 17.276,-9.039 11.441,0 20.021,7.666 20.021,24.141 v 33.065 z"
           style="clip-rule:evenodd;fill:#006699;fill-rule:evenodd"
           id="path8"
           inkscape:connector-curvature="0" /></g></g></g></svg>