
<svg data-name="Layer 1" id="Layer_1" viewBox="0 0 140 140" xmlns="http://www.w3.org/2000/svg">
    <circle class="cls-1" fill="#ccbeb0" cx="70" cy="70" r="64"/>
    <rect class="cls-2" fill="#525354" height="98" rx="1" ry="1" transform="translate(-29.7 70.29) rotate(-45)" width="24" x="58" y="22"/>
    <rect class="cls-2" fill="#525354" height="98" rx="1" ry="1" transform="translate(69.29 170.7) rotate(-135)" width="24" x="58" y="22"/>
    <rect class="cls-3" fill="#d77165" height="98" rx="1" ry="1" transform="translate(-28.99 70) rotate(-45)" width="24" x="58" y="21"/>
    <rect class="cls-3" fill="#d77165" height="98" rx="1" ry="1" transform="translate(70 168.99) rotate(-135)" width="24" x="58" y="21"/>
</svg>