<svg enable-background="new 0 0 128 128" version="1.1" viewBox="0 0 128 128" xml:space="preserve" xmlns="http://www.w3.org/2000/svg" xmlns:xlink="http://www.w3.org/1999/xlink">

<g id="Layer_2">
<g>

<g>
<defs>
<circle cx="64" cy="64" id="SVGID_31_" r="64"/>
</defs>

</g>
<path d="M104.944,96.947H23.056c-2.209,0-4-1.791-4-4V35.053c0-2.209,1.791-4,4-4h81.888c2.209,0,4,1.791,4,4    v57.894C108.944,95.156,107.153,96.947,104.944,96.947z" fill="#FFFFFF"/>
<g>
<path d="M108.944,42.054v-7.001c0-2.209-1.791-4-4-4H23.056c-2.209,0-4,1.791-4,4v7.001H108.944z" fill="#E1E3E9"/>
</g>
<circle cx="25" cy="36.553" fill="#F24B45" r="3"/>
<circle cx="34" cy="36.553" fill="#FFB202" r="3"/>
<circle cx="43.001" cy="36.553" fill="#4CBB41" r="3"/>

<g>
<path d="M30.866,66.804L53.475,56.3v4.993l-17.099,7.49v0.094l17.099,7.489v4.993L30.866,70.855V66.804z" fill="#53899F"/>
<path d="M56.958,85.206l10.08-34.15h4.758l-10.081,34.15H56.958z" fill="#53899F"/>
<path d="M97.134,70.997L74.525,81.359v-4.993L92,68.877v-0.094l-17.476-7.49V56.3l22.609,10.363V70.997z" fill="#53899F"/>
</g>
</g>
</g>
</svg>