<svg data-name="Layer 1" id="Layer_1" viewBox="0 0 140 140" xmlns="http://www.w3.org/2000/svg">
<title/>
<path class="cls-2" fill="#525354" d="M70,43.49c-25,0-45,22.74-48.48,26.87a1,1,0,0,0,0,1.28C25,75.77,45,98.51,70,98.51s45-22.74,48.48-26.87a1,1,0,0,0,0-1.28C115,66.23,95,43.49,70,43.49Z"/>
<path class="cls-3" fill="#fff" d="M70,42.49c-25,0-45,22.74-48.48,26.87a1,1,0,0,0,0,1.28C25,74.77,45,97.51,70,97.51s45-22.74,48.48-26.87a1,1,0,0,0,0-1.28C115,65.23,95,42.49,70,42.49Z"/>
</svg>